\relax 
\@writefile{toc}{\contentsline {section}{\numberline {1}\textbf  {Summary}}{1}\protected@file@percent }
\@writefile{toc}{\contentsline {section}{\numberline {2}\textbf  {Education}}{1}\protected@file@percent }
\@writefile{toc}{\contentsline {section}{\numberline {3}\textbf  {Work Experience}}{1}\protected@file@percent }
\@writefile{toc}{\contentsline {section}{\numberline {4}\textbf  {Skills}}{2}\protected@file@percent }
\@writefile{toc}{\contentsline {section}{\numberline {5}\textbf  {Projects}}{2}\protected@file@percent }
\@writefile{toc}{\contentsline {section}{\numberline {6}\textbf  {Certificates}}{2}\protected@file@percent }
